{
	"ImportPath": "bitbucket.org/georgerogers42/storgo",
	"GoVersion": "go1.6",
	"GodepVersion": "v74",
	"Deps": [
		{
			"ImportPath": "github.com/gorilla/context",
			"Comment": "v1.1-4-gaed02d1",
			"Rev": "aed02d124ae4a0e94fea4541c8effd05bf0c8296"
		},
		{
			"ImportPath": "github.com/gorilla/mux",
			"Comment": "v1.1-20-g7804150",
			"Rev": "780415097119f6f61c55475fe59b66f3c3e9ea53"
		}
	]
}
